{
    "key": "group_5d7481dea480a",
    "title": "Page \/ Member Programs",
    "fields": [],
    "location": [
        [
            {
                "param": "post_template",
                "operator": "==",
                "value": "page-member-program.php"
            }
        ]
    ],
    "menu_order": 0,
    "position": "acf_after_title",
    "style": "default",
    "label_placement": "top",
    "instruction_placement": "label",
    "hide_on_screen": [
        "the_content",
        "excerpt",
        "discussion",
        "comments",
        "featured_image",
        "categories",
        "tags",
        "send-trackbacks"
    ],
    "active": 1,
    "description": "",
    "modified": 1567917156
}